Funktionen schreiben & Parameterisierung von Berichten – rstatsZH - Data Science mit R
…
inline code macht es möglich R code direkt in Text einzubetten

Lernende im Jahr `r params$jahr` ...

… wird zu: Lernende im Jahr 2022

Parameter in Quarto Dokumenten

Parameter werden folgendermassen im Code angegeben:

lernende_ktzh |> 
    filter(jahr == params$jahr)

# A tibble: 111 × 10
   stand      kanton  jahr stufe        schultyp geschlecht staatsangehoerigkeit
   <date>     <chr>  <dbl> <chr>        <chr>    <chr>      <chr>               
 1 2023-09-01 zh      2022 Primarstufe… Volkssc… weiblich   Schweiz             
 2 2023-09-01 zh      2022 Primarstufe… Volkssc… weiblich   Ausland             
 3 2023-09-01 zh      2022 Primarstufe… Volkssc… weiblich   Schweiz             
 4 2023-09-01 zh      2022 Primarstufe… Volkssc… weiblich   Ausland             
 5 2023-09-01 zh      2022 Primarstufe… Volkssc… männlich   Schweiz             
 6 2023-09-01 zh      2022 Primarstufe… Volkssc… männlich   Ausland             
 7 2023-09-01 zh      2022 Primarstufe… Volkssc… männlich   Schweiz             
 8 2023-09-01 zh      2022 Primarstufe… Volkssc… männlich   Ausland             
 9 2023-09-01 zh      2022 Primarstufe… Heim- u… weiblich   Schweiz             
10 2023-09-01 zh      2022 Primarstufe… Heim- u… weiblich   Ausland             
# ℹ 101 more rows
# ℹ 3 more variables: traegerschaft <chr>, finanzierung <chr>, anzahl <dbl>
…
